…
#### `table`

The `table` command takes a table name as input and shows a sample of the table's content.

<details>
<summary><b>Example</b></summary>
<br>

Here an example of a database that includes a table called `contracts`.

```sh
$ premia db table contracts

┌─────────────────────┬──────────────────────┬───┬───────────────┬──────────┐
│       symbol        │   expiration_date    │ … │ strike_price  │ currency │
│       varchar       │ timestamp with tim…  │   │ decimal(18,3) │ varchar  │
├─────────────────────┼──────────────────────┼───┼───────────────┼──────────┤
│ AMZN240202C00080000 │ 2024-02-02 00:00:0…  │ … │        80.000 │ USD      │
│ AMZN240202C00085000 │ 2024-02-02 00:00:0…  │ … │        85.000 │ USD      │
│ AMZN240202C00090000 │ 2024-02-02 00:00:0…  │ … │        90.000 │ USD      │
│ AMZN240202P00080000 │ 2024-02-02 00:00:0…  │ … │        80.000 │ USD      │
│ AMZN240202P00085000 │ 2024-02-02 00:00:0…  │ … │        85.000 │ USD      │
│ AMZN240202P00090000 │ 2024-02-02 00:00:0…  │ … │        90.000 │ USD      │
│ GOOG240202C00075000 │ 2024-02-02 00:00:0…  │ … │        75.000 │ USD      │
│ GOOG240202C00095000 │ 2024-02-02 00:00:0…  │ … │        95.000 │ USD      │
│ GOOG240202C00100000 │ 2024-02-02 00:00:0…  │ … │       100.000 │ USD      │
│ GOOG240202P00095000 │ 2024-02-02 00:00:0…  │ … │        95.000 │ USD      │
│          ·          │          ·           │ · │           ·   │  ·       │
│          ·          │          ·           │ · │           ·   │  ·       │
│          ·          │          ·           │ · │           ·   │  ·       │
│ AAPL240202C00090000 │ 2024-02-02 00:00:0…  │ … │        90.000 │ USD      │
│ AAPL240202P00080000 │ 2024-02-02 00:00:0…  │ … │        80.000 │ USD      │
│ AAPL240202P00090000 │ 2024-02-02 00:00:0…  │ … │        90.000 │ USD      │
│ AAPL240202P00100000 │ 2024-02-02 00:00:0…  │ … │       100.000 │ USD      │
│ MSFT240202C00250000 │ 2024-02-02 00:00:0…  │ … │       250.000 │ USD      │
│ MSFT240202C00260000 │ 2024-02-02 00:00:0…  │ … │       260.000 │ USD      │
│ MSFT240202C00265000 │ 2024-02-02 00:00:0…  │ … │       265.000 │ USD      │
│ MSFT240202P00190000 │ 2024-02-02 00:00:0…  │ … │       190.000 │ USD      │
│ MSFT240202P00200000 │ 2024-02-02 00:00:0…  │ … │       200.000 │ USD      │
│ MSFT240202P00210000 │ 2024-02-02 00:00:0…  │ … │       210.000 │ USD      │
├─────────────────────┴──────────────────────┴───┴───────────────┴──────────┤
│ 42 rows (20 shown)                                    7 columns (4 shown) │
└───────────────────────────────────────────────────────────────────────────┘
```
…
